('C:\\Users\\Asus\\Desktop\\chrome\\dist\\getUrls.exe',
 True,
 False,
 False,
 'c:\\users\\asus\\pycharmprojects\\pythonproject\\venv\\lib\\site-packages\\PyInstaller\\bootloader\\images\\icon-console.ico',
 None,
 False,
 False,
 '<?xml version="1.0" encoding="UTF-8" standalone="yes"?><assembly xmlns="urn:schemas-microsoft-com:asm.v1" manifestVersion="1.0"><assemblyIdentity type="win32" name="getUrls" processorArchitecture="amd64" version="1.0.0.0"/><trustInfo xmlns="urn:schemas-microsoft-com:asm.v3"><security><requestedPrivileges><requestedExecutionLevel level="asInvoker" uiAccess="false"/></requestedPrivileges></security></trustInfo><dependency><dependentAssembly><assemblyIdentity type="win32" name="Microsoft.Windows.Common-Controls" language="*" processorArchitecture="*" version="6.0.0.0" publicKeyToken="6595b64144ccf1df"/><compatibility xmlns="urn:schemas-microsoft-com:compatibility.v1"/></dependentAssembly></dependency><compatibility xmlns="urn:schemas-microsoft-com:compatibility.v1"><application><supportedOS Id="{e2011457-1546-43c5-a5fe-008deee3d3f0}"/><supportedOS Id="{35138b9a-5d96-4fbd-8e2d-a2440225f93a}"/><supportedOS Id="{4a2f28e3-53b9-4441-ba9c-d69d4a4a6e38}"/><supportedOS Id="{1f676c76-80e1-4239-95bb-83d0f6d0da78}"/><supportedOS Id="{8e0f7a12-bfb3-4fe8-b9a5-48fd50a15a9a}"/></application></compatibility><application xmlns="urn:schemas-microsoft-com:asm.v3"><windowsSettings><longPathAware xmlns="http://schemas.microsoft.com/SMI/2016/WindowsSettings">true</longPathAware></windowsSettings></application></assembly>',
 True,
 'getUrls.pkg',
 [('PYZ-00.pyz',
   'C:\\Users\\Asus\\Desktop\\chrome\\build\\getUrls\\PYZ-00.pyz',
   'PYZ'),
  ('struct', 'E:\\python38\\lib\\struct.pyo', 'PYMODULE'),
  ('pyimod01_os_path',
   'c:\\users\\asus\\pycharmprojects\\pythonproject\\venv\\lib\\site-packages\\PyInstaller\\loader\\pyimod01_os_path.pyc',
   'PYMODULE'),
  ('pyimod02_archive',
   'c:\\users\\asus\\pycharmprojects\\pythonproject\\venv\\lib\\site-packages\\PyInstaller\\loader\\pyimod02_archive.pyc',
   'PYMODULE'),
  ('pyimod03_importers',
   'c:\\users\\asus\\pycharmprojects\\pythonproject\\venv\\lib\\site-packages\\PyInstaller\\loader\\pyimod03_importers.pyc',
   'PYMODULE'),
  ('pyiboot01_bootstrap',
   'c:\\users\\asus\\pycharmprojects\\pythonproject\\venv\\lib\\site-packages\\PyInstaller\\loader\\pyiboot01_bootstrap.py',
   'PYSOURCE'),
  ('pyi_rth_multiprocessing',
   'C:\\Users\\Asus\\PycharmProjects\\pythonProject\\venv\\Lib\\site-packages\\PyInstaller\\hooks\\rthooks\\pyi_rth_multiprocessing.py',
   'PYSOURCE'),
  ('pyi_rth_certifi',
   'C:\\Users\\Asus\\PycharmProjects\\pythonProject\\venv\\Lib\\site-packages\\_pyinstaller_hooks_contrib\\hooks\\rthooks\\pyi_rth_certifi.py',
   'PYSOURCE'),
  ('getUrls', 'C:\\Users\\Asus\\Desktop\\chrome\\getUrls.py', 'PYSOURCE'),
  ('unicodedata', 'E:\\python38\\DLLs\\unicodedata.pyd', 'EXTENSION'),
  ('select', 'E:\\python38\\DLLs\\select.pyd', 'EXTENSION'),
  ('_overlapped', 'E:\\python38\\DLLs\\_overlapped.pyd', 'EXTENSION'),
  ('_asyncio', 'E:\\python38\\DLLs\\_asyncio.pyd', 'EXTENSION'),
  ('_queue', 'E:\\python38\\DLLs\\_queue.pyd', 'EXTENSION'),
  ('_ctypes', 'E:\\python38\\DLLs\\_ctypes.pyd', 'EXTENSION'),
  ('_multiprocessing', 'E:\\python38\\DLLs\\_multiprocessing.pyd', 'EXTENSION'),
  ('pyexpat', 'E:\\python38\\DLLs\\pyexpat.pyd', 'EXTENSION'),
  ('_decimal', 'E:\\python38\\DLLs\\_decimal.pyd', 'EXTENSION'),
  ('_hashlib', 'E:\\python38\\DLLs\\_hashlib.pyd', 'EXTENSION'),
  ('_lzma', 'E:\\python38\\DLLs\\_lzma.pyd', 'EXTENSION'),
  ('_bz2', 'E:\\python38\\DLLs\\_bz2.pyd', 'EXTENSION'),
  ('_socket', 'E:\\python38\\DLLs\\_socket.pyd', 'EXTENSION'),
  ('_ssl', 'E:\\python38\\DLLs\\_ssl.pyd', 'EXTENSION'),
  ('win32wnet',
   'c:\\users\\asus\\pycharmprojects\\pythonproject\\venv\\lib\\site-packages\\win32\\win32wnet.pyd',
   'EXTENSION'),
  ('VCRUNTIME140.dll', 'E:\\python38\\VCRUNTIME140.dll', 'BINARY'),
  ('python38.dll', 'E:\\python38\\python38.dll', 'BINARY'),
  ('libffi-7.dll', 'E:\\python38\\DLLs\\libffi-7.dll', 'BINARY'),
  ('libcrypto-1_1.dll', 'E:\\python38\\DLLs\\libcrypto-1_1.dll', 'BINARY'),
  ('libssl-1_1.dll', 'E:\\python38\\DLLs\\libssl-1_1.dll', 'BINARY'),
  ('pywintypes38.dll',
   'c:\\users\\asus\\pycharmprojects\\pythonproject\\venv\\Lib\\site-packages\\pywin32_system32\\pywintypes38.dll',
   'BINARY'),
  ('base_library.zip',
   'C:\\Users\\Asus\\Desktop\\chrome\\build\\getUrls\\base_library.zip',
   'DATA'),
  ('selenium\\webdriver\\remote\\isDisplayed.js',
   'c:\\users\\asus\\pycharmprojects\\pythonproject\\venv\\lib\\site-packages\\selenium\\webdriver\\remote\\isDisplayed.js',
   'DATA'),
  ('selenium\\webdriver\\firefox\\webdriver_prefs.json',
   'c:\\users\\asus\\pycharmprojects\\pythonproject\\venv\\lib\\site-packages\\selenium\\webdriver\\firefox\\webdriver_prefs.json',
   'DATA'),
  ('selenium\\webdriver\\remote\\getAttribute.js',
   'c:\\users\\asus\\pycharmprojects\\pythonproject\\venv\\lib\\site-packages\\selenium\\webdriver\\remote\\getAttribute.js',
   'DATA'),
  ('selenium\\webdriver\\firefox\\amd64\\x_ignore_nofocus.so',
   'c:\\users\\asus\\pycharmprojects\\pythonproject\\venv\\lib\\site-packages\\selenium\\webdriver\\firefox\\amd64\\x_ignore_nofocus.so',
   'DATA'),
  ('selenium\\webdriver\\firefox\\webdriver.xpi',
   'c:\\users\\asus\\pycharmprojects\\pythonproject\\venv\\lib\\site-packages\\selenium\\webdriver\\firefox\\webdriver.xpi',
   'DATA'),
  ('selenium\\webdriver\\firefox\\x86\\x_ignore_nofocus.so',
   'c:\\users\\asus\\pycharmprojects\\pythonproject\\venv\\lib\\site-packages\\selenium\\webdriver\\firefox\\x86\\x_ignore_nofocus.so',
   'DATA'),
  ('certifi\\cacert.pem',
   'c:\\users\\asus\\pycharmprojects\\pythonproject\\venv\\lib\\site-packages\\certifi\\cacert.pem',
   'DATA'),
  ('getUrls.exe.manifest',
   'C:\\Users\\Asus\\Desktop\\chrome\\build\\getUrls\\getUrls.exe.manifest',
   'BINARY'),
  ('pyi-windows-manifest-filename getUrls.exe.manifest', '', 'OPTION')],
 [],
 False,
 False,
 1624119303,
 [('run.exe',
   'c:\\users\\asus\\pycharmprojects\\pythonproject\\venv\\lib\\site-packages\\PyInstaller\\bootloader\\Windows-64bit\\run.exe',
   'EXECUTABLE')])
